…
<!-- end list -->

``` r
library(p8105.datasets)
data("instacart")
instacart %>% 
  janitor::clean_names()
```

    ## # A tibble: 1,384,617 x 15
    ##    order_id product_id add_to_cart_ord… reordered user_id eval_set
    ##       <int>      <int>            <int>     <int>   <int> <chr>   
    ##  1        1      49302                1         1  112108 train   
    ##  2        1      11109                2         1  112108 train   
    ##  3        1      10246                3         0  112108 train   
    ##  4        1      49683                4         0  112108 train   
    ##  5        1      43633                5         1  112108 train   
    ##  6        1      13176                6         0  112108 train   
    ##  7        1      47209                7         0  112108 train   
    ##  8        1      22035                8         1  112108 train   
    ##  9       36      39612                1         0   79431 train   
    ## 10       36      19660                2         1   79431 train   
    ## # … with 1,384,607 more rows, and 9 more variables: order_number <int>,
    ## #   order_dow <int>, order_hour_of_day <int>,
    ## #   days_since_prior_order <int>, product_name <chr>, aisle_id <int>,
    ## #   department_id <int>, aisle <chr>, department <chr>
…
    ## # A tibble: 1 x 1
    ##   `max(aisle_id)`
    ##             <int>
    ## 1             134

``` r
#counting the aisles that are the most important : there are 134 aisles 
instacart %>% 
  count(aisle_id, name = "n_items")
```

    ## # A tibble: 134 x 2
    ##    aisle_id n_items
    ##       <int>   <int>
    ##  1        1    2936
    ##  2        2    3873
    ##  3        3   17449
    ##  4        4    9917
    ##  5        5    2905
    ##  6        6    1795
    ##  7        7    1526
    ##  8        8    1501
    ##  9        9    9736
    ## 10       10     448
    ## # … with 124 more rows

``` r
# another  way
instacart %>% 
  group_by(aisle_id) %>% 
  summarize(
    n_obs=n()
  )
```

    ## # A tibble: 134 x 2
    ##    aisle_id n_obs
    ##       <int> <int>
    ##  1        1  2936
    ##  2        2  3873
    ##  3        3 17449
    ##  4        4  9917
    ##  5        5  2905
    ##  6        6  1795
    ##  7        7  1526
    ##  8        8  1501
    ##  9        9  9736
    ## 10       10   448
    ## # … with 124 more rows
…
